[
  {
    "url": "https://web.archive.org/web/20220403111800/https://check.torproject.org/",
    "fixes": [],
    "postLoadTimeout": 5,
    "sha256": "85b035577b6ca8e6b0c743cdc1c15dc0a7a18c02ef7e20f50b9ec06368da2ec5"
  },
  {
    "url": "https://web.archive.org/web/20220315080301/https://guaranteedinstallmentloans.com/",
    "fixes": [
      "fadeinElements",
      "lazyLoadedImages"
    ],
    "postLoadTimeout": 10,
    "sha256": "ea9adc0f5cbc6aa01ae1709375f2a3e70da456d4152747e17f09b3e7c2d63d0b"
  },
  {
    "url": "https://web.archive.org/web/20220318025253/https://bittrex.com/",
    "fixes": [
      "fadeinElements"
    ],
    "postLoadTimeout": 120,
    "sha256": "b96b03cfacfd0348a2143f3e63c84c75f2000254e7d69b5f6c082539528771fb"
  },
  {
    "url": "https://web.archive.org/web/20220324091619/https://www.brex.com/",
    "fixes": [
      "lazyLoadedImages"
    ],
    "hideElements": ".css-gmml4w, div.css-10ctd0i section#pageBuilder > section:nth-child(24) > div",
    "postLoadTimeout": 10,
    "sha256": "40a59c364e7874f7646545f590285a6808e27f43a7cd3250b88d2f9fc3db25e6"
  },
  {
    "url": "https://web.archive.org/web/20210525040603/https://quantumwarp.com/",
    "fixes": [
      "preloader"
    ],
    "hideElements": "div.banneritem img",
    "sha256": "8fd8eed5fec887a169429f6654bfc9b9389c4c3256f0aeb5430da39813e043d9"
  },
  {
    "url": "https://web.archive.org/web/20220325032203/http://www.denverpost.com/",
    "fixes": [
      "lazyLoadedImages"
    ],
    "postLoadTimeout": 10,
    "sha256": "674664e92a2f472111bebce0efcd5811d54b1dd7fac24d9a10dd44141f2a2d32"
  },
  {
    "url": "https://web.archive.org/web/20220319213724/http://www.keralaemarket.kerala.gov.in/",
    "fixes": [
      "preloader",
      "lazyLoadedImages"
    ],
    "sha256": "7025156bb37420691040da1af379e97e7496a098544a16bdf39bb4bccb15d9e0"
  },
  {
    "url": "https://web.archive.org/web/20211126180550/https://www.juliensobczak.com/categories/write.html",
    "fixes": [
      "preloader"
    ],
    "sha256": "c6226aaca3c0cb5b1f52a0b10fb6001f745252830b63dae6e2277eb38c94c0a0"
  },
  {
    "url": "https://web.archive.org/web/20220324040329/https://www.humansecurity.com/",
    "fixes": [
      "preloader"
    ],
    "postLoadTimeout": 10,
    "sha256": "d33701c3ae81132f5e0208cf1bac3fa52becb7b4d3bf9d68800da78b88d7c9eb"
  },
  {
    "url": "https://web.archive.org/web/20220314213253/https://www.mightynetworks.com/",
    "fixes": [
      "lazyLoadedImages",
      "fadeinElements"
    ],
    "postLoadTimeout": 120,
    "sha256": "9552975863145910d925848a49144349c6abb446fbafdb0fcbe5f35d2bf20188"
  },
  {
    "url": "https://web.archive.org/web/20220318155428/https://www.pcguide.com/reviews/best-fan-controller/",
    "fixes": [
      "lazyLoadedImages",
      "lazyLoadedStylesheets"
    ],
    "hideElements": "svg.e-eicon-loading",
    "postLoadTimeout": 60,
    "sha256": "d57c3995e40e26d81599e2a8ba8ac3898fd19d8a8d6e9bb06852a5d37c674a98"
  },
  {
    "url": "https://web.archive.org/web/20211029055239/https://null-byte.wonderhowto.com/how-to/hackers-use-hidden-data-airline-boarding-passes-hack-flights-0180728/",
    "fixes": [
      "lazyLoadedImages"
    ],
    "sha256": "97a80d6cadb5bf5f87836bc183f1d80b2988aa83735863379913eb32f04c90be"
  },
  {
    "url": "https://web.archive.org/web/20220219101940/https://icha.uci.edu/",
    "fixes": [
      "fadeinElements"
    ],
    "hideElements": ".fusion-slider-loading",
    "postLoadTimeout": 60,
    "sha256": "3cac921ed90faa67820417d6daec25e6e2c9ba03c8b999bc9750a3d6acb5d75b"
  },
  {
    "url": "https://web.archive.org/web/20220321040826/https://www.appcast.io/",
    "fixes": [
      "lazyLoadedImages",
      "lazyLoadedStylesheets"
    ],
    "hideElements": "i.fa-circle",
    "postLoadTimeout": 120,
    "sha256": "93e9c9608be32a97a906f31aaefbacd273388e01c19b84912960e963cdbbbb15"
  },
  {
    "url": "https://web.archive.org/web/20220318181952/https://peatix.com/",
    "fixes": [
      "fadeinElements"
    ],
    "sha256": "113c0fdb2ae5f081ba3a7cab4fcb4a42e15d7eddd91059e42b2715e8f5fdd0f6"
  },
  {
    "url": "https://web.archive.org/web/20220320191644/https://www.nature.com/articles/nmeth.1618",
    "fixes": [
      "lazyLoadedStylesheets"
    ],
    "postLoadTimeout": 30,
    "sha256": "13aa8f1c0a9ba675815e340ba10831f7d9a1424f8ca3678cf053c663823fa555"
  },
  {
    "url": "https://web.archive.org/web/20220120121148/https://www.furet.com/livres.html",
    "fixes": [
      "lazyLoadedImages"
    ],
    "postLoadTimeout": 60,
    "sha256": "12ad7951ccc8370e178f23c28a0f7f7d2901331a6ece5c1f67240a8db0d5af92"
  },
  {
    "url": "https://web.archive.org/web/20220402104825/https://acta-ape.org/",
    "fixes": [
      "lazyLoadedStylesheets"
    ],
    "postLoadTimeout": 30,
    "sha256": "aa71c9fc1de15f8d8619489f68756ce7ec3e3ba04f3f327d7763038897cd785a"
  },
  {
    "url": "https://web.archive.org/web/20220418225743/https://www.newyorker.com/magazine/2022/04/25/how-democracies-spy-on-their-citizens",
    "fixes": [
      "fadeinElements",
      "noscript"
    ],
    "postLoadTimeout": 10,
    "sha256": "dff659c6c9537dc92bf4a08526f7c1a563fcdb25fb0fd3355e6fcd1667b2f270"
  },
  {
    "url": "https://web.archive.org/web/20220122143438/https://www.robinwieruch.de/webpack-font/",
    "fixes": [
      "noscript"
    ],
    "postLoadTimeout": 15,
    "sha256": "64a70a42e48ba7f663c193f7b5ccb7d0c5ee22e62c6bac928c67170a932ddfbc"
  },
  {
    "url": "https://web.archive.org/web/20220420045006/https://www.gatsbyjs.com/",
    "fixes": [
      "noscript",
      "lazyLoadedImages"
    ],
    "postLoadTimeout": 100,
    "sha256": "87ec2f892e4ab6e007d18f1858001c6ccb658e1c7bcabe27ba79af79f1f7d1de"
  },
  {
    "url": "https://web.archive.org/web/20220419014319/https://pypi.org/",
    "fixes": [],
    "postLoadTimeout": 20,
    "sha256": "f87a5589e7ad82fed758111d794a030dc6d216087f5c0062b448a3a2c13e5c3b",
    "comments": "The top noscript banner should not be shown"
  },
  {
    "url": "https://web.archive.org/web/20220124170600/https://elie.net/blog/security/tracking-users-that-block-cookies-with-a-http-redirect/",
    "fixes": [
      "noscript"
    ],
    "hideElements": ".lightrope, body > .gradbar",
    "postLoadTimeout": 10,
    "sha256": "e165dea0caf309ff5a0956e3a78263c6f6911634cbf13b3508592ecfbdc9a1d0"
  },
  {
    "url": "https://web.archive.org/web/20220108214933/https://www.sitepoint.com/understanding-css-content-property/",
    "fixes": [
      "noscript"
    ],
    "postLoadTimeout": 30,
    "sha256": "c11e324c04a03dcede0782a00e323020a37b4ea4b2a01dc6096ece960fa26077"
  }
]
