---
source: src/lib.rs
expression: s
---
img_file0: tests/fixtures/white_50_blue_noise_50_192x216.png
img_file1: tests/fixtures/white_192x108.png
height0: 216
height1: 108
diff_pixels: 20736
diff_pixels_perc: 100.0
total_pixels: 20736
diff_pixels_above_waterline: 0
diff_pixels_above_waterline_perc: 0.0
total_pixels_above_waterline_n: 20736
diff_pixels_below_waterline: 20736
diff_pixels_below_waterline_perc: 0.0
total_pixels_below_waterline_n: 0
likely_viewport_overlay: false
same_height: false
same_width: true
output_img_file: ~

