{
  "lazyStylesheets": [
    {
      "target": "link[onload][rel=\"stylesheet\"], link[media=\"only x\"], link[media=\"none\"], link[onload][as=\"style\"], link[onload][type=\"type/css\"]",
      "applyToLoad": [
        { "prop": "rel", "value": "stylesheet" },
        { "prop": "media", "value": "all" },
        { "prop": "onload", "value": null }
      ]
    }
  ],
  "scriptLoaded": [
    {
      "target": "head > script",
      "regexp": "loadCSS\\s*\\(\\s*[\"']([^\"']+)[\"']",
      "usedBy": [
        "https://github.com/filamentgroup/loadCSS/"
      ],
      "foundOn": [
        "https://web.archive.org/web/20220325032203/http://www.denverpost.com/"
      ]
    }
  ]
}
